%YAML 1.1
%TAG !u! tag:unity3d.com,2011:
--- !u!114 &11400000
MonoBehaviour:
  m_ObjectHideFlags: 0
  m_CorrespondingSourceObject: {fileID: 0}
  m_PrefabInstance: {fileID: 0}
  m_PrefabAsset: {fileID: 0}
  m_GameObject: {fileID: 0}
  m_Enabled: 1
  m_EditorHideFlags: 0
  m_Script: {fileID: 11500000, guid: 94844d2d5b7533d42af939f3f08eafd9, type: 3}
  m_Name: Prefab
  m_EditorClassIdentifier: 
  m_Prefab: {fileID: 7215205388355424799, guid: ee73d4b134aa9534a92f44b2fc9c9eb3, type: 3}
