%YAML 1.1
%TAG !u! tag:unity3d.com,2011:
--- !u!162 &1
EditorUserSettings:
  m_ObjectHideFlags: 0
  serializedVersion: 4
  m_ConfigSettings:
    RecentlyUsedSceneGuid-0:
      value: 5b50060455535c590b5c5b7316760844144e4c2c2e2d2766742c4867bae2323b
      flags: 0
    RecentlyUsedSceneGuid-1:
      value: 5a55565451560b080c5659741220594442164c297b297664787b4832b4b5633e
      flags: 0
    RecentlyUsedSceneGuid-2:
      value: 5606575353055a0b0c5f0977427b5e44424e1c7f292d71627c784a6ab3b3316e
      flags: 0
    RecentlyUsedSceneGuid-3:
      value: 540103070656515f0b080e7542210e4442151a7b2a2e24357c2a4465b7e6673c
      flags: 0
    RecentlyUsedSceneGuid-4:
      value: 0608045752515c5d54580e7b167306444e4e1a7e2e7b71357c2d4b36e0b9656c
      flags: 0
    RecentlyUsedSceneGuid-5:
      value: 55040d5101070c0354575d72417a0d44154e4e787c792365297b1835b3b2633d
      flags: 0
    RecentlyUsedSceneGuid-6:
      value: 5409525f56020d595a5c5a7241730744474f407d7f2c20322f794f6bb3e53061
      flags: 0
    RecentlyUsedSceneGuid-7:
      value: 50030707070d0d595e565a2049770f44424f4d2c7f2c20337e784962b1b3673b
      flags: 0
    RecentlyUsedSceneGuid-8:
      value: 570403000302510e5e085b7240750f444e4e402f7a2e27362f7a4b67e7b0676d
      flags: 0
    RecentlyUsedSceneGuid-9:
      value: 5409020253040a5d55585a201676594440151a72282972357f7e4e66b5e36039
      flags: 0
    vcSharedLogLevel:
      value: 0d5e400f0650
      flags: 0
  m_VCAutomaticAdd: 1
  m_VCDebugCom: 0
  m_VCDebugCmd: 0
  m_VCDebugOut: 0
  m_SemanticMergeMode: 2
  m_DesiredImportWorkerCount: 4
  m_StandbyImportWorkerCount: 2
  m_IdleImportWorkerShutdownDelay: 60000
  m_VCShowFailedCheckout: 1
  m_VCOverwriteFailedCheckoutAssets: 1
  m_VCProjectOverlayIcons: 1
  m_VCHierarchyOverlayIcons: 1
  m_VCOtherOverlayIcons: 1
  m_VCAllowAsyncUpdate: 1
  m_ArtifactGarbageCollection: 1
